<?xml version="1.0" encoding="UTF-8" standalone="no"?>
<svg xmlns="http://www.w3.org/2000/svg"
  version='1.1' width='337.97125' height='16.760548'>
  <path d='m 123.0177,0.01085856 c -0.7452,0.015 -1.52094,0.046 -2.3125,0.094 -11.40156,0.6759 -20.67476,6.51100004 -26.218753,10.00000044 l -1.1875,0.75 c -4.55759,2.8131 -9.39397,2.5239 -18.5,-1.0625004 -9.1182,-3.6016 -15.07254,-4.7301 -26.15625,-1.9688 l -7.875,2.125 c -7.22941,2.0520004 -14.04251,3.9937004 -22.65625,4.3438004 -11.3321402,0.4628 -16.5726402,-1.6128 -16.6250002,-1.625 -0.55286996,-0.2253 -1.18521996,0.065 -1.40624996,0.625 -0.2259,0.551 0.0422,1.1497 0.59375,1.375 0.22499,0.088 5.62196996,2.2684 17.50000016,1.7812 8.86702,-0.3622 15.83296,-2.3329 23.1875,-4.4062 l 7.8125,-2.1250004 c 10.50679,-2.6243 16.14184,-1.55 24.8125,1.8750004 3.93651,1.5496 7.15789,2.5196 9.9375,2.9062 0.87376,0.4019 5.88136,2.4316 14.15625,0.9063 7.927813,-1.4614 13.706163,-8.0567004 20.437503,-8.7813004 6.72525,-0.7245 12.52499,3.3063004 21.03125,6.9688004 11.83996,5.0873 20.17736,2.6124 25.9375,0.125 1.33349,-0.4749 2.51664,-1.1873 3.5,-2.125 0.98641,0.9499 2.1856,1.6501 3.53125,2.125 5.76015,2.4873 14.08151,4.9501 25.90625,-0.125 8.50628,-3.6625 14.29991,-7.6933004 21.03125,-6.9688004 6.73133,0.7246 12.50665,7.3321004 20.4375,8.7813004 7.93086,1.437 13.09375,-0.7188 13.09375,-0.7187 l 0.0312,-0.031 c 3.0049,-0.3014 6.51084,-1.3241 10.9375,-3.0625 8.67066,-3.4250004 14.33422,-4.4993004 24.84375,-1.8750004 l 7.8125,2.1250004 c 7.3524,2.0733 14.2877,4.044 23.15625,4.4062 11.8765,0.4872 17.30595,-1.6929 17.53125,-1.7812 0.55105,-0.2253 0.816,-0.8239 0.59375,-1.375 -0.22833,-0.5602 -0.85215,-0.8503 -1.40625,-0.625 -0.0517,0.012 -5.29346,2.0878 -16.625,1.625 -8.61586,-0.3501 -15.45687,-2.2918 -22.6875,-4.3438004 l -7.875,-2.125 c -11.08492,-2.7613 -17.00984,-1.6328 -26.125,1.9688 -9.10603,3.5864004 -13.93937,3.8756004 -18.5,1.0625004 l -1.1875,-0.75 c -5.54399,-3.4890004 -14.8454,-9.32410044 -26.25,-10.00000044 -12.66501,-0.7642 -19.13235,2.70810004 -27.5625,8.09370004 -7.17279,4.5759004 -14.93626,5.6080004 -18.90625,2.7188004 0.51451,-0.9499004 2.45211,-4.2104004 1.46875,-6.3750004 -0.3014,-0.6606 -0.98914,-1.5042 -2.46875,-1.7812 -2.02154,-0.3989 -3.63196,0.501 -4.25,2.3124 -0.6028,1.7872 -0.11661,4.2368 1.5,5.6250004 -3.91519,3.075 -11.4181,2.1642 -18.71875,-2.5000004 -7.90327,-5.049 -14.1033,-8.41540004 -25.28125,-8.18740004 z m 0.0312,2.15620004 c 10.6062,-0.2029 16.49317,3.0145 24.0625,7.8438004 3.93346,2.5238 7.89454,4.0059 11.46875,4.4687 -0.88899,0.3623 -2.71025,0.7989 -6.40625,0.875 -6.25335,0.1126 -17.18788,-5.7766004 -25,-9.5000004 -0.95901,-0.4628 -1.95798,-0.7366 -2.96875,-0.9375 -0.67891,-0.6972 -2.53136,-2.2419 -5.84375,-2.4062 0.81896,-0.1006 1.65669,-0.2013 2.5,-0.25 0.75065,-0.045 1.48042,-0.08 2.1875,-0.094 z m 89.8125,0 c 1.33424,-0.033 2.74907,0 4.25,0.094 0.84941,0.049 1.67799,0.1495 2.5,0.25 -2.46603,0.4505 -3.69304,1.0063 -4.375,1.7187 -1.00772,0.1857 -3.47849,1.1622 -4.4375,1.625 -7.81213,3.7234 -18.7497,9.6126004 -25,9.5000004 -3.69904,-0.076 -5.54851,-0.5127 -6.4375,-0.875 3.57118,-0.4628 7.53225,-1.9449 11.46875,-4.4687 7.06471,-4.5074004 12.69156,-7.6143004 22.03125,-7.8438004 z m -99.78125,1.9375 c 1.41342,0.01 2.69972,0.3214 2.71875,1.4687 -4.40535,1.3122 -8.35991,3.7331 -10.625,5.2188004 -3.91519,2.5878 -9.493723,3.7892 -14.218753,3.5 1.19039,-0.3745 2.33316,-0.9248 3.46875,-1.625 l 1.21875,-0.75 c 3.57421,-2.2499004 8.765733,-5.4809004 15.031253,-7.5938004 0.68044,-0.1073 1.5582,-0.2233 2.40625,-0.2187 z m 111.8125,0 c 0.84582,-0.01 1.72467,0.1114 2.40625,0.2187 6.26857,2.1129 11.45704,5.3439 15.03125,7.5938004 l 1.1875,0.75 c 1.81451,1.1264 3.66292,1.8388 5.6875,2.125 -4.71894,1.4735 -11.56554,-0.8124 -16.40625,-4 -2.26509,-1.4857004 -6.25089,-3.9066004 -10.65625,-5.2188004 0.0191,-1.1397 1.34031,-1.4586 2.75,-1.4687 z m -56.15625,0.7187 c 0.1947,-0.015 0.4165,0.019 0.65625,0.063 0.61194,0.1248 0.78366,0.3646 0.875,0.5624 0.0883,0.1888 0.125,0.4448 0.125,0.7188 0,0.889 -0.40615,2.0883 -0.875,3.0625 0,0 -1.9537,-1.0563 -2.09375,-2.5937 -0.0305,-0.2984 0.0397,-0.582 0.125,-0.8438 0.20093,-0.5914 0.60339,-0.9245 1.1875,-0.9688 z'/>
</svg>